What I Wish I Knew Before I Started Learning R
…
```r
print(cc_data,n = 3, width = 75)
```

```
## # A tibble: 453 x 4
##   Date     Title                                    Recommends `Read ratio`
##   <chr>    <chr>                                         <dbl>        <dbl>
## 1 01/10/2… Upgrading to MacOS Sierra will break yo…         58         0.48
## 2 01/10/2… How Crowd Curation Improved Our Search …         28         0.37
## 3 01/10/2… Code Briefing: What I learned from revi…         56         0.59
## # … with 450 more rows
```
…
```
## # A tibble: 453 x 5
##   Date       Title                        Recommends `Read ratio` topic    
##   <date>     <chr>                             <dbl>        <dbl> <chr>    
## 1 2016-10-01 Upgrading to MacOS Sierra w…         58         0.48 Operatin…
## 2 2016-10-01 How Crowd Curation Improved…         28         0.37 Other    
## # … with 451 more rows
```
…
# Summarising the data 

--

```r
summarised_cc_data <- cc_data %>%
   dplyr::group_by(Date, topic) %>%
   dplyr::summarise(average_read_ratio = mean(`Read ratio`)) %>%
   dplyr::ungroup()

print(summarised_cc_data, n = 10)
```

```
## # A tibble: 31 x 3
##    Date       topic             average_read_ratio
##    <date>     <chr>                          <dbl>
##  1 2015-10-01 Operating systems              0.79 
##  2 2015-10-01 Other                          0.613
##  3 2015-11-01 Other                          0.505
##  4 2015-11-01 Web software                   0.27 
##  5 2015-12-01 Other                          0.532
##  6 2016-01-01 Other                          0.493
##  7 2016-01-01 Web software                   0.41 
##  8 2016-02-01 Operating systems              0.66 
##  9 2016-02-01 Other                          0.454
## 10 2016-02-01 Web software                   0.313
## # … with 21 more rows
```
…
